src/obj_dir/dump.vcd
$version Generated by VerilatedVcd $end
$timescale 1ps $end
 $scope module $rootio $end
 $upscope $end
 $scope module tb_computer $end
  $var wire 1 ] clk $end
  $var wire 1 ^ reset $end
  $var wire 32 _ data_out_instruction [31:0] $end
  $scope module dut $end
   $var wire 1 ] clk $end
   $var wire 1 ^ reset $end
   $var wire 32 _ data_out_instruction [31:0] $end
   $var wire 32 B data_out [31:0] $end
   $var wire 32 ` data_in [31:0] $end
   $var wire 32 C address_data [31:0] $end
   $var wire 32 a address_inst [31:0] $end
   $var wire 1 D memWrite $end
   $var wire 1 E memRead $end
   $scope module cpu $end
    $var wire 32 B data_out [31:0] $end
    $var wire 32 _ data_out_instruction [31:0] $end
    $var wire 1 ] clk $end
    $var wire 1 ^ reset $end
    $var wire 32 ` data_in [31:0] $end
    $var wire 32 C address_data [31:0] $end
    $var wire 32 a address_instruction [31:0] $end
    $var wire 1 D MemWrite $end
    $var wire 1 E MemRead $end
    $var wire 6 7 opcode [5:0] $end
    $var wire 2 8 mode [1:0] $end
    $var wire 1 F MemWriteSel $end
    $var wire 1 G MemReg $end
    $var wire 1 H RegSrc $end
    $var wire 1 I RegWrite $end
    $var wire 1 J RegWrite2 $end
    $var wire 1 K IRwrite $end
    $var wire 1 L PCwriteUncond $end
    $var wire 1 M StackWrite $end
    $var wire 1 N sign_ext $end
    $var wire 1 o PCwriteCond $end
    $var wire 1 b PCwrite $end
    $var wire 1 O StackSelect $end
    $var wire 2 P ALUsrcA [1:0] $end
    $var wire 2 Q ALUsrcB [1:0] $end
    $var wire 2 R PCsrc [1:0] $end
    $var wire 2 S ALUctrl [1:0] $end
    $var wire 2 T StackALU [1:0] $end
    $var wire 2 U ALUop [1:0] $end
    $var wire 32 V ALUresult [31:0] $end
    $var wire 4 c state [3:0] $end
    $var wire 1 W z $end
    $var wire 1 X n $end
    $var wire 1 Y v $end
    $scope module ALU_control $end
     $var wire 2 S ALUctrl [1:0] $end
     $var wire 6 7 opcode [5:0] $end
     $var wire 2 U ALUop [1:0] $end
     $var wire 2 p AND [1:0] $end
     $var wire 2 q ADD [1:0] $end
     $var wire 2 r SUB [1:0] $end
     $var wire 2 s RSB [1:0] $end
    $upscope $end
    $scope module control $end
     $var wire 1 F MemWriteSel $end
     $var wire 1 G MemReg $end
     $var wire 1 H RegSrc $end
     $var wire 1 I RegWrite $end
     $var wire 1 J RegWrite2 $end
     $var wire 1 E MemRead $end
     $var wire 1 K IRwrite $end
     $var wire 1 L PCwriteUncond $end
     $var wire 1 M StackWrite $end
     $var wire 1 N sign_ext $end
     $var wire 1 D MemWrite $end
     $var wire 1 O StackSelect $end
     $var wire 2 P ALUsrcA [1:0] $end
     $var wire 2 Q ALUsrcB [1:0] $end
     $var wire 2 R PCsrc [1:0] $end
     $var wire 2 S ALUctrl [1:0] $end
     $var wire 2 T StackALU [1:0] $end
     $var wire 4 c state [3:0] $end
     $var wire 1 ] clk $end
     $var wire 1 ^ reset $end
     $var wire 6 7 opcode [5:0] $end
     $var wire 2 8 mode [1:0] $end
     $var wire 1 9 jmp $end
     $var wire 1 : PUSH_Branch $end
     $var wire 1 ; logical $end
     $var wire 32 t InstructionFetch [31:0] $end
     $var wire 32 u InstructionDecode [31:0] $end
     $var wire 32 v AddressComputation [31:0] $end
     $var wire 32 w LoadAccess [31:0] $end
     $var wire 32 x StoreAccess [31:0] $end
     $var wire 32 y ALUcomputationR [31:0] $end
     $var wire 32 z ResultStore [31:0] $end
     $var wire 32 { BranchCompletion [31:0] $end
     $var wire 32 | IncrementReg [31:0] $end
     $var wire 32 } ALUcomputationI [31:0] $end
     $var wire 32 ~ PushAccess [31:0] $end
     $var wire 32 !! PopAccess [31:0] $end
     $var wire 32 "! ResultStoreMem [31:0] $end
     $var wire 32 #! Call [31:0] $end
     $var wire 32 $! Return [31:0] $end
     $var wire 6 %! AND [5:0] $end
     $var wire 6 &! ADD [5:0] $end
     $var wire 6 '! SUB [5:0] $end
     $var wire 6 (! ANDI [5:0] $end
     $var wire 6 )! ADDI [5:0] $end
     $var wire 6 *! LW [5:0] $end
     $var wire 6 +! LW_POI [5:0] $end
     $var wire 6 ,! SW [5:0] $end
     $var wire 6 -! BGT [5:0] $end
     $var wire 6 .! BLT [5:0] $end
     $var wire 6 /! BEQ [5:0] $end
     $var wire 6 0! BNE [5:0] $end
     $var wire 6 1! JMP [5:0] $end
     $var wire 6 2! CALL [5:0] $end
     $var wire 6 3! RET [5:0] $end
     $var wire 6 4! PUSH [5:0] $end
     $var wire 6 5! POP [5:0] $end
     $var wire 2 q Inc [1:0] $end
     $var wire 2 p NoInc [1:0] $end
    $upscope $end
    $scope module d1 $end
     $var wire 1 F MemWriteSel $end
     $var wire 1 G MemReg $end
     $var wire 1 H RegSrc $end
     $var wire 1 I RegWrite $end
     $var wire 1 J RegWrite2 $end
     $var wire 1 K IRwrite $end
     $var wire 1 b PCwrite $end
     $var wire 1 M StackWrite $end
     $var wire 1 N sign_ext $end
     $var wire 1 ] clk $end
     $var wire 1 ^ reset $end
     $var wire 1 O StackSelect $end
     $var wire 32 _ data_out_instruction [31:0] $end
     $var wire 32 B data_out [31:0] $end
     $var wire 2 P ALUsrcA [1:0] $end
     $var wire 2 Q ALUsrcB [1:0] $end
     $var wire 2 R PCsrc [1:0] $end
     $var wire 2 U ALUop [1:0] $end
     $var wire 2 T StackALU [1:0] $end
     $var wire 6 7 opcode [5:0] $end
     $var wire 2 8 mode [1:0] $end
     $var wire 32 C address_data [31:0] $end
     $var wire 32 a address_instruction [31:0] $end
     $var wire 32 ` data_in [31:0] $end
     $var wire 1 W z $end
     $var wire 1 X n $end
     $var wire 1 Y v $end
     $var wire 32 V ALU_result [31:0] $end
     $var wire 4 < Rs1 [3:0] $end
     $var wire 4 = Rs2 [3:0] $end
     $var wire 4 > Rd [3:0] $end
     $var wire 32 a pc_temp [31:0] $end
     $var wire 32 ? instruction [31:0] $end
     $var wire 32 d BUS1 [31:0] $end
     $var wire 32 e BUS2 [31:0] $end
     $var wire 32 # B_operand [31:0] $end
     $var wire 32 $ A_operand [31:0] $end
     $var wire 32 f SP_address [31:0] $end
     $var wire 32 % increment [31:0] $end
     $var wire 32 g extended_immediate [31:0] $end
     $var wire 32 Z ALU_operand1 [31:0] $end
     $var wire 32 [ ALU_operand2 [31:0] $end
     $var wire 32 h jumpTargetAddress [31:0] $end
     $var wire 32 i PCtype [31:0] $end
     $var wire 32 @ ALU_result_buffer [31:0] $end
     $var wire 32 j decrement [31:0] $end
     $var wire 32 k stack_select_wire [31:0] $end
     $var wire 32 & MDR_out [31:0] $end
     $var wire 32 l Register_result [31:0] $end
     $var wire 16 A immediate [15:0] $end
     $var wire 4 m Rs2_regfile [3:0] $end
     $scope module A $end
      $var wire 32 $ out [31:0] $end
      $var wire 1 ] clk $end
      $var wire 1 6! writeEn $end
      $var wire 32 d in [31:0] $end
      $var wire 1 6! reset $end
     $upscope $end
     $scope module ALU_mux $end
      $var wire 32 7! WIDTH [31:0] $end
      $var wire 32 @ a [31:0] $end
      $var wire 32 & b [31:0] $end
      $var wire 1 G select $end
      $var wire 32 l out [31:0] $end
     $upscope $end
     $scope module ALUout $end
      $var wire 32 @ out [31:0] $end
      $var wire 1 ] clk $end
      $var wire 1 6! writeEn $end
      $var wire 32 V in [31:0] $end
      $var wire 1 6! reset $end
     $upscope $end
     $scope module ALUsrc1_mux $end
      $var wire 32 7! WIDTH [31:0] $end
      $var wire 32 a a [31:0] $end
      $var wire 32 $ b [31:0] $end
      $var wire 32 f c [31:0] $end
      $var wire 32 8! d [31:0] $end
      $var wire 2 P s [1:0] $end
      $var wire 32 Z out [31:0] $end
     $upscope $end
     $scope module ALUsrc2_mux $end
      $var wire 32 7! WIDTH [31:0] $end
      $var wire 32 # a [31:0] $end
      $var wire 32 g b [31:0] $end
      $var wire 32 9! c [31:0] $end
      $var wire 32 8! d [31:0] $end
      $var wire 2 Q s [1:0] $end
      $var wire 32 [ out [31:0] $end
     $upscope $end
     $scope module B $end
      $var wire 32 # out [31:0] $end
      $var wire 1 ] clk $end
      $var wire 1 6! writeEn $end
      $var wire 32 e in [31:0] $end
      $var wire 1 6! reset $end
     $upscope $end
     $scope module IR $end
      $var wire 32 ? out [31:0] $end
      $var wire 1 ] clk $end
      $var wire 1 K writeEn $end
      $var wire 32 _ in [31:0] $end
      $var wire 1 6! reset $end
     $upscope $end
     $scope module MDR $end
      $var wire 32 & out [31:0] $end
      $var wire 1 ] clk $end
      $var wire 1 6! writeEn $end
      $var wire 32 B in [31:0] $end
      $var wire 1 6! reset $end
     $upscope $end
     $scope module RegSrc_mux $end
      $var wire 32 x WIDTH [31:0] $end
      $var wire 4 = a [3:0] $end
      $var wire 4 > b [3:0] $end
      $var wire 1 H select $end
      $var wire 4 m out [3:0] $end
     $upscope $end
     $scope module SP $end
      $var wire 32 f out [31:0] $end
      $var wire 1 ] clk $end
      $var wire 1 M writeEn $end
      $var wire 32 k in [31:0] $end
      $var wire 1 ^ reset $end
     $upscope $end
     $scope module alu $end
      $var wire 2 U ALUop [1:0] $end
      $var wire 32 Z a [31:0] $end
      $var wire 32 [ b [31:0] $end
      $var wire 1 W zero $end
      $var wire 1 Y overflow $end
      $var wire 1 X negative $end
      $var wire 32 V result [31:0] $end
      $var wire 2 \ carry [1:0] $end
     $upscope $end
     $scope module dataIn $end
      $var wire 32 7! WIDTH [31:0] $end
      $var wire 32 # a [31:0] $end
      $var wire 32 a b [31:0] $end
      $var wire 1 F select $end
      $var wire 32 ` out [31:0] $end
     $upscope $end
     $scope module data_mem_address $end
      $var wire 32 7! WIDTH [31:0] $end
      $var wire 32 @ a [31:0] $end
      $var wire 32 j b [31:0] $end
      $var wire 32 f c [31:0] $end
      $var wire 32 8! d [31:0] $end
      $var wire 2 T s [1:0] $end
      $var wire 32 C out [31:0] $end
     $upscope $end
     $scope module ext $end
      $var wire 16 A in [15:0] $end
      $var wire 1 N sign_ext $end
      $var wire 32 g out [31:0] $end
     $upscope $end
     $scope module file $end
      $var wire 1 ] clk $end
      $var wire 1 I regWrite $end
      $var wire 1 J regWrite2 $end
      $var wire 4 > regDst1 [3:0] $end
      $var wire 4 < regDst2 [3:0] $end
      $var wire 4 < regSrc1 [3:0] $end
      $var wire 4 m regSrc2 [3:0] $end
      $var wire 32 l bus_w [31:0] $end
      $var wire 32 % bus2_w [31:0] $end
      $var wire 32 d out1 [31:0] $end
      $var wire 32 e out2 [31:0] $end
      $var wire 32 ' regArray[0] [31:0] $end
      $var wire 32 ( regArray[1] [31:0] $end
      $var wire 32 ) regArray[2] [31:0] $end
      $var wire 32 * regArray[3] [31:0] $end
      $var wire 32 + regArray[4] [31:0] $end
      $var wire 32 , regArray[5] [31:0] $end
      $var wire 32 - regArray[6] [31:0] $end
      $var wire 32 . regArray[7] [31:0] $end
      $var wire 32 / regArray[8] [31:0] $end
      $var wire 32 0 regArray[9] [31:0] $end
      $var wire 32 1 regArray[10] [31:0] $end
      $var wire 32 2 regArray[11] [31:0] $end
      $var wire 32 3 regArray[12] [31:0] $end
      $var wire 32 4 regArray[13] [31:0] $end
      $var wire 32 5 regArray[14] [31:0] $end
      $var wire 32 6 regArray[15] [31:0] $end
     $upscope $end
     $scope module pc $end
      $var wire 32 a out [31:0] $end
      $var wire 1 ] clk $end
      $var wire 1 b writeEn $end
      $var wire 32 i in [31:0] $end
      $var wire 1 ^ reset $end
     $upscope $end
     $scope module pcMux $end
      $var wire 32 7! WIDTH [31:0] $end
      $var wire 32 h a [31:0] $end
      $var wire 32 V b [31:0] $end
      $var wire 32 B c [31:0] $end
      $var wire 32 @ d [31:0] $end
      $var wire 2 R s [1:0] $end
      $var wire 32 i out [31:0] $end
     $upscope $end
     $scope module stack_select_mux $end
      $var wire 32 7! WIDTH [31:0] $end
      $var wire 32 V a [31:0] $end
      $var wire 32 j b [31:0] $end
      $var wire 1 O select $end
      $var wire 32 k out [31:0] $end
     $upscope $end
    $upscope $end
    $scope module pc_control $end
     $var wire 6 7 opcode [5:0] $end
     $var wire 1 W z $end
     $var wire 1 Y v $end
     $var wire 1 X n $end
     $var wire 1 L pcWriteUncond $end
     $var wire 4 c state [3:0] $end
     $var wire 1 b writeEn $end
     $var wire 6 0! BNE [5:0] $end
     $var wire 6 /! BEQ [5:0] $end
     $var wire 6 .! BLT [5:0] $end
     $var wire 6 -! BGT [5:0] $end
     $var wire 1 n branch $end
    $upscope $end
   $upscope $end
   $scope module data_mem $end
    $var wire 32 :! WIDTH [31:0] $end
    $var wire 32 B dataOut [31:0] $end
    $var wire 1 ] clk $end
    $var wire 32 C address [31:0] $end
    $var wire 32 ` dataIn [31:0] $end
    $var wire 1 E memRead $end
    $var wire 1 D memWrite $end
   $upscope $end
   $scope module inst_mem $end
    $var wire 32 7! WIDTH [31:0] $end
    $var wire 32 _ data [31:0] $end
    $var wire 1 ] clk $end
    $var wire 32 a address [31:0] $end
   $upscope $end
  $upscope $end
 $upscope $end
$enddefinitions $end


#0
b00000000000000000000000000000000 #
b00000000000000000000000000000000 $
b00000000000000000000000000000001 %
b00000000000000000000000000000000 &
b00000000000000000000000000000000 '
b00000000000000000000000000000000 (
b00000000000000000000000000000000 )
b00000000000000000000000000000000 *
b00000000000000000000000000000000 +
b00000000000000000000000000000000 ,
b00000000000000000000000000000000 -
b00000000000000000000000000000000 .
b00000000000000000000000000000000 /
b00000000000000000000000000000000 0
b00000000000000000000000000000000 1
b00000000000000000000000000000000 2
b00000000000000000000000000000000 3
b00000000000000000000000000000000 4
b00000000000000000000000000000000 5
b00000000000000000000000000000000 6
b000000 7
b00 8
09
0:
0;
b0000 <
b0000 =
b0000 >
b00000000000000000000000000000000 ?
b00000000000000000000000000000000 @
b0000000000000000 A
b00000000000000000000000000000000 B
b00000000000000000000000000000000 C
0D
0E
0F
0G
0H
0I
0J
1K
1L
0M
0N
0O
b00 P
b10 Q
b01 R
b01 S
b00 T
b01 U
b00000000000000000000000000000001 V
0W
0X
0Y
b00000000000000000000000000000000 Z
b00000000000000000000000000000001 [
b00 \
1]
1^
b00000000000000000000000000000000 _
b00000000000000000000000000000000 `
b00000000000000000000000000000000 a
1b
b0000 c
b00000000000000000000000000000000 d
b00000000000000000000000000000000 e
b00000000000000000000000000000000 f
b00000000000000000000000000000000 g
b00000000000000000000000000000000 h
b00000000000000000000000000000001 i
b11111111111111111111111111111111 j
b00000000000000000000000000000001 k
b00000000000000000000000000000000 l
b0000 m
0n
0o
b00 p
b01 q
b10 r
b11 s
b00000000000000000000000000000000 t
b00000000000000000000000000000001 u
b00000000000000000000000000000010 v
b00000000000000000000000000000011 w
b00000000000000000000000000000100 x
b00000000000000000000000000000101 y
b00000000000000000000000000000110 z
b00000000000000000000000000000111 {
b00000000000000000000000000001000 |
b00000000000000000000000000001001 }
b00000000000000000000000000001010 ~
b00000000000000000000000000001011 !!
b00000000000000000000000000001100 "!
b00000000000000000000000000001101 #!
b00000000000000000000000000001110 $!
b000000 %!
b000001 &!
b000010 '!
b000011 (!
b000100 )!
b000101 *!
b000110 +!
b000111 ,!
b001000 -!
b001001 .!
b001010 /!
b001011 0!
b001100 1!
b001101 2!
b001110 3!
b001111 4!
b010000 5!
16!
b00000000000000000000000000100000 7!
b00000000000000000000000000000000 8!
b00000000000000000000000000000001 9!
b00000000000000000000000100000000 :!
#1000
0^
#2000
1^
#10000
0]
#20000
b00000000000000000000000000000001 @
b11111111111111111111111111111111 C
1E
0K
0L
1N
b01 Q
b00 R
b01 T
b00000000000000000000000000000001 Z
b00000000000000000000000000000000 [
1]
b00000000000000000000000000000001 a
0b
b0001 c
b00000000000000000000000000000000 i
b00000000000000000000000000000001 l
#30000
0]
#40000
b00000000000000000000000000000001 C
0E
0N
b01 P
b00 Q
b00 S
b00 T
b00 U
b00000000000000000000000000000000 V
1W
b00000000000000000000000000000000 Z
1]
b0101 c
b00000000000000000000000000000000 k
#50000
0]
#60000
b00000000000000000000000000000000 @
b00000000000000000000000000000000 C
1I
b00 P
b00000000000000000000000000000001 Z
1]
b0110 c
b00000000000000000000000000000000 l
#70000
0]
#80000
0I
1K
1L
b10 Q
b01 R
b01 S
b01 U
b00000000000000000000000000000010 V
0W
b00000000000000000000000000000001 [
1]
1b
b0000 c
b00000000000000000000000000000010 i
b00000000000000000000000000000010 k
#90000
0]
#100000
b00000000000000000000000000000010 @
b11111111111111111111111111111111 C
1E
0K
0L
1N
b01 Q
b00 R
b01 T
b00000000000000000000000000000010 Z
b00000000000000000000000000000000 [
1]
b00000000000000000000000000000010 a
0b
b0001 c
b00000000000000000000000000000000 i
b00000000000000000000000000000010 l
#110000
0]
#120000
b00000000000000000000000000000010 C
0E
0N
b01 P
b00 Q
b00 S
b00 T
b00 U
b00000000000000000000000000000000 V
1W
b00000000000000000000000000000000 Z
1]
b0101 c
b00000000000000000000000000000000 k
#130000
0]
#140000
b00000000000000000000000000000000 @
b00000000000000000000000000000000 C
1I
b00 P
b00000000000000000000000000000010 Z
1]
b0110 c
b00000000000000000000000000000000 l
#150000
0]
#160000
0I
1K
1L
b10 Q
b01 R
b01 S
b01 U
b00000000000000000000000000000011 V
0W
b00000000000000000000000000000001 [
1]
1b
b0000 c
b00000000000000000000000000000011 i
b00000000000000000000000000000011 k
#170000
0]
#180000
b00000000000000000000000000000011 @
b11111111111111111111111111111111 C
1E
0K
0L
1N
b01 Q
b00 R
b01 T
b00000000000000000000000000000011 Z
b00000000000000000000000000000000 [
1]
b00000000000000000000000000000011 a
0b
b0001 c
b00000000000000000000000000000000 i
b00000000000000000000000000000011 l
#190000
0]
#200000
b00000000000000000000000000000011 C
0E
0N
b01 P
b00 Q
b00 S
b00 T
b00 U
b00000000000000000000000000000000 V
1W
b00000000000000000000000000000000 Z
1]
b0101 c
b00000000000000000000000000000000 k
#210000
0]
#220000
b00000000000000000000000000000000 @
b00000000000000000000000000000000 C
1I
b00 P
b00000000000000000000000000000011 Z
1]
b0110 c
b00000000000000000000000000000000 l
#230000
0]
#240000
0I
1K
1L
b10 Q
b01 R
b01 S
b01 U
b00000000000000000000000000000100 V
0W
b00000000000000000000000000000001 [
1]
1b
b0000 c
b00000000000000000000000000000100 i
b00000000000000000000000000000100 k
#250000
0]
#260000
b00000000000000000000000000000100 @
b11111111111111111111111111111111 C
1E
0K
0L
1N
b01 Q
b00 R
b01 T
b00000000000000000000000000000100 Z
b00000000000000000000000000000000 [
1]
b00000000000000000000000000000100 a
0b
b0001 c
b00000000000000000000000000000000 i
b00000000000000000000000000000100 l
#270000
0]
#280000
b00000000000000000000000000000100 C
0E
0N
b01 P
b00 Q
b00 S
b00 T
b00 U
b00000000000000000000000000000000 V
1W
b00000000000000000000000000000000 Z
1]
b0101 c
b00000000000000000000000000000000 k
#290000
0]
#300000
b00000000000000000000000000000000 @
b00000000000000000000000000000000 C
1I
b00 P
b00000000000000000000000000000100 Z
1]
b0110 c
b00000000000000000000000000000000 l
#310000
0]
#320000
0I
1K
1L
b10 Q
b01 R
b01 S
b01 U
b00000000000000000000000000000101 V
0W
b00000000000000000000000000000001 [
1]
1b
b0000 c
b00000000000000000000000000000101 i
b00000000000000000000000000000101 k
#330000
0]
#340000
b00000000000000000000000000000101 @
b11111111111111111111111111111111 C
1E
0K
0L
1N
b01 Q
b00 R
b01 T
b00000000000000000000000000000101 Z
b00000000000000000000000000000000 [
1]
b00000000000000000000000000000101 a
0b
b0001 c
b00000000000000000000000000000000 i
b00000000000000000000000000000101 l
#350000
0]
#360000
b00000000000000000000000000000101 C
0E
0N
b01 P
b00 Q
b00 S
b00 T
b00 U
b00000000000000000000000000000000 V
1W
b00000000000000000000000000000000 Z
1]
b0101 c
b00000000000000000000000000000000 k
#370000
0]
#380000
b00000000000000000000000000000000 @
b00000000000000000000000000000000 C
1I
b00 P
b00000000000000000000000000000101 Z
1]
b0110 c
b00000000000000000000000000000000 l
#390000
0]
#400000
0I
1K
1L
b10 Q
b01 R
b01 S
b01 U
b00000000000000000000000000000110 V
0W
b00000000000000000000000000000001 [
1]
1b
b0000 c
b00000000000000000000000000000110 i
b00000000000000000000000000000110 k
#410000
0]
#420000
b00000000000000000000000000000110 @
b11111111111111111111111111111111 C
1E
0K
0L
1N
b01 Q
b00 R
b01 T
b00000000000000000000000000000110 Z
b00000000000000000000000000000000 [
1]
b00000000000000000000000000000110 a
0b
b0001 c
b00000000000000000000000000000000 i
b00000000000000000000000000000110 l
#430000
0]
#440000
b00000000000000000000000000000110 C
0E
0N
b01 P
b00 Q
b00 S
b00 T
b00 U
b00000000000000000000000000000000 V
1W
b00000000000000000000000000000000 Z
1]
b0101 c
b00000000000000000000000000000000 k
#450000
0]
#460000
b00000000000000000000000000000000 @
b00000000000000000000000000000000 C
1I
b00 P
b00000000000000000000000000000110 Z
1]
b0110 c
b00000000000000000000000000000000 l
#470000
0]
#480000
0I
1K
1L
b10 Q
b01 R
b01 S
b01 U
b00000000000000000000000000000111 V
0W
b00000000000000000000000000000001 [
1]
1b
b0000 c
b00000000000000000000000000000111 i
b00000000000000000000000000000111 k
#490000
0]
#500000
b00000000000000000000000000000111 @
b11111111111111111111111111111111 C
1E
0K
0L
1N
b01 Q
b00 R
b01 T
b00000000000000000000000000000111 Z
b00000000000000000000000000000000 [
1]
b00000000000000000000000000000111 a
0b
b0001 c
b00000000000000000000000000000000 i
b00000000000000000000000000000111 l
#510000
0]
#520000
b00000000000000000000000000000111 C
0E
0N
b01 P
b00 Q
b00 S
b00 T
b00 U
b00000000000000000000000000000000 V
1W
b00000000000000000000000000000000 Z
1]
b0101 c
b00000000000000000000000000000000 k
#530000
0]
#540000
b00000000000000000000000000000000 @
b00000000000000000000000000000000 C
1I
b00 P
b00000000000000000000000000000111 Z
1]
b0110 c
b00000000000000000000000000000000 l
#550000
0]
#560000
0I
1K
1L
b10 Q
b01 R
b01 S
b01 U
b00000000000000000000000000001000 V
0W
b00000000000000000000000000000001 [
1]
1b
b0000 c
b00000000000000000000000000001000 i
b00000000000000000000000000001000 k
#570000
0]
#580000
b00000000000000000000000000001000 @
b11111111111111111111111111111111 C
1E
0K
0L
1N
b01 Q
b00 R
b01 T
b00000000000000000000000000001000 Z
b00000000000000000000000000000000 [
1]
b00000000000000000000000000001000 a
0b
b0001 c
b00000000000000000000000000000000 i
b00000000000000000000000000001000 l
#590000
0]
#600000
b00000000000000000000000000001000 C
0E
0N
b01 P
b00 Q
b00 S
b00 T
b00 U
b00000000000000000000000000000000 V
1W
b00000000000000000000000000000000 Z
1]
b0101 c
b00000000000000000000000000000000 k
#610000
0]
#620000
b00000000000000000000000000000000 @
b00000000000000000000000000000000 C
1I
b00 P
b00000000000000000000000000001000 Z
1]
b0110 c
b00000000000000000000000000000000 l
#630000
0]
#640000
0I
1K
1L
b10 Q
b01 R
b01 S
b01 U
b00000000000000000000000000001001 V
0W
b00000000000000000000000000000001 [
1]
1b
b0000 c
b00000000000000000000000000001001 i
b00000000000000000000000000001001 k
#650000
0]
#660000
b00000000000000000000000000001001 @
b11111111111111111111111111111111 C
1E
0K
0L
1N
b01 Q
b00 R
b01 T
b00000000000000000000000000001001 Z
b00000000000000000000000000000000 [
1]
b00000000000000000000000000001001 a
0b
b0001 c
b00000000000000000000000000000000 i
b00000000000000000000000000001001 l
#670000
0]
#680000
b00000000000000000000000000001001 C
0E
0N
b01 P
b00 Q
b00 S
b00 T
b00 U
b00000000000000000000000000000000 V
1W
b00000000000000000000000000000000 Z
1]
b0101 c
b00000000000000000000000000000000 k
#690000
0]
#700000
b00000000000000000000000000000000 @
b00000000000000000000000000000000 C
1I
b00 P
b00000000000000000000000000001001 Z
1]
b0110 c
b00000000000000000000000000000000 l
#710000
0]
#720000
0I
1K
1L
b10 Q
b01 R
b01 S
b01 U
b00000000000000000000000000001010 V
0W
b00000000000000000000000000000001 [
1]
1b
b0000 c
b00000000000000000000000000001010 i
b00000000000000000000000000001010 k
#730000
0]
#740000
b00000000000000000000000000001010 @
b11111111111111111111111111111111 C
1E
0K
0L
1N
b01 Q
b00 R
b01 T
b00000000000000000000000000001010 Z
b00000000000000000000000000000000 [
1]
b00000000000000000000000000001010 a
0b
b0001 c
b00000000000000000000000000000000 i
b00000000000000000000000000001010 l
#750000
0]
#760000
b00000000000000000000000000001010 C
0E
0N
b01 P
b00 Q
b00 S
b00 T
b00 U
b00000000000000000000000000000000 V
1W
b00000000000000000000000000000000 Z
1]
b0101 c
b00000000000000000000000000000000 k
#770000
0]
#780000
b00000000000000000000000000000000 @
b00000000000000000000000000000000 C
1I
b00 P
b00000000000000000000000000001010 Z
1]
b0110 c
b00000000000000000000000000000000 l
#790000
0]
#800000
0I
1K
1L
b10 Q
b01 R
b01 S
b01 U
b00000000000000000000000000001011 V
0W
b00000000000000000000000000000001 [
1]
1b
b0000 c
b00000000000000000000000000001011 i
b00000000000000000000000000001011 k
#810000
0]
#820000
b00000000000000000000000000001011 @
b11111111111111111111111111111111 C
1E
0K
0L
1N
b01 Q
b00 R
b01 T
b00000000000000000000000000001011 Z
b00000000000000000000000000000000 [
1]
b00000000000000000000000000001011 a
0b
b0001 c
b00000000000000000000000000000000 i
b00000000000000000000000000001011 l
#830000
0]
#840000
b00000000000000000000000000001011 C
0E
0N
b01 P
b00 Q
b00 S
b00 T
b00 U
b00000000000000000000000000000000 V
1W
b00000000000000000000000000000000 Z
1]
b0101 c
b00000000000000000000000000000000 k
#850000
0]
#860000
b00000000000000000000000000000000 @
b00000000000000000000000000000000 C
1I
b00 P
b00000000000000000000000000001011 Z
1]
b0110 c
b00000000000000000000000000000000 l
#870000
0]
#880000
0I
1K
1L
b10 Q
b01 R
b01 S
b01 U
b00000000000000000000000000001100 V
0W
b00000000000000000000000000000001 [
1]
1b
b0000 c
b00000000000000000000000000001100 i
b00000000000000000000000000001100 k
#890000
0]
#900000
b00000000000000000000000000001100 @
b11111111111111111111111111111111 C
1E
0K
0L
1N
b01 Q
b00 R
b01 T
b00000000000000000000000000001100 Z
b00000000000000000000000000000000 [
1]
b00000000000000000000000000001100 a
0b
b0001 c
b00000000000000000000000000000000 i
b00000000000000000000000000001100 l
#910000
0]
#920000
b00000000000000000000000000001100 C
0E
0N
b01 P
b00 Q
b00 S
b00 T
b00 U
b00000000000000000000000000000000 V
1W
b00000000000000000000000000000000 Z
1]
b0101 c
b00000000000000000000000000000000 k
#930000
0]
#940000
b00000000000000000000000000000000 @
b00000000000000000000000000000000 C
1I
b00 P
b00000000000000000000000000001100 Z
1]
b0110 c
b00000000000000000000000000000000 l
#950000
0]
#960000
0I
1K
1L
b10 Q
b01 R
b01 S
b01 U
b00000000000000000000000000001101 V
0W
b00000000000000000000000000000001 [
1]
1b
b0000 c
b00000000000000000000000000001101 i
b00000000000000000000000000001101 k
#970000
0]
#980000
b00000000000000000000000000001101 @
b11111111111111111111111111111111 C
1E
0K
0L
1N
b01 Q
b00 R
b01 T
b00000000000000000000000000001101 Z
b00000000000000000000000000000000 [
1]
b00000000000000000000000000001101 a
0b
b0001 c
b00000000000000000000000000000000 i
b00000000000000000000000000001101 l
#990000
0]
#1000000
b00000000000000000000000000001101 C
0E
0N
b01 P
b00 Q
b00 S
b00 T
b00 U
b00000000000000000000000000000000 V
1W
b00000000000000000000000000000000 Z
1]
b0101 c
b00000000000000000000000000000000 k
#1010000
0]
#1020000
b00000000000000000000000000000000 @
b00000000000000000000000000000000 C
1I
b00 P
b00000000000000000000000000001101 Z
1]
b0110 c
b00000000000000000000000000000000 l
#1030000
0]
#1040000
0I
1K
1L
b10 Q
b01 R
b01 S
b01 U
b00000000000000000000000000001110 V
0W
b00000000000000000000000000000001 [
1]
1b
b0000 c
b00000000000000000000000000001110 i
b00000000000000000000000000001110 k
#1050000
0]
#1060000
b00000000000000000000000000001110 @
b11111111111111111111111111111111 C
1E
0K
0L
1N
b01 Q
b00 R
b01 T
b00000000000000000000000000001110 Z
b00000000000000000000000000000000 [
1]
b00000000000000000000000000001110 a
0b
b0001 c
b00000000000000000000000000000000 i
b00000000000000000000000000001110 l
#1070000
0]
#1080000
b00000000000000000000000000001110 C
0E
0N
b01 P
b00 Q
b00 S
b00 T
b00 U
b00000000000000000000000000000000 V
1W
b00000000000000000000000000000000 Z
1]
b0101 c
b00000000000000000000000000000000 k
#1090000
0]
#1100000
b00000000000000000000000000000000 @
b00000000000000000000000000000000 C
1I
b00 P
b00000000000000000000000000001110 Z
1]
b0110 c
b00000000000000000000000000000000 l
#1110000
0]
#1120000
0I
1K
1L
b10 Q
b01 R
b01 S
b01 U
b00000000000000000000000000001111 V
0W
b00000000000000000000000000000001 [
1]
1b
b0000 c
b00000000000000000000000000001111 i
b00000000000000000000000000001111 k
#1130000
0]
#1140000
b00000000000000000000000000001111 @
b11111111111111111111111111111111 C
1E
0K
0L
1N
b01 Q
b00 R
b01 T
b00000000000000000000000000001111 Z
b00000000000000000000000000000000 [
1]
b00000000000000000000000000001111 a
0b
b0001 c
b00000000000000000000000000000000 i
b00000000000000000000000000001111 l
#1150000
0]
#1160000
b00000000000000000000000000001111 C
0E
0N
b01 P
b00 Q
b00 S
b00 T
b00 U
b00000000000000000000000000000000 V
1W
b00000000000000000000000000000000 Z
1]
b0101 c
b00000000000000000000000000000000 k
#1170000
0]
#1180000
b00000000000000000000000000000000 @
b00000000000000000000000000000000 C
1I
b00 P
b00000000000000000000000000001111 Z
1]
b0110 c
b00000000000000000000000000000000 l
#1190000
0]
#1200000
0I
1K
1L
b10 Q
b01 R
b01 S
b01 U
b00000000000000000000000000010000 V
0W
b00000000000000000000000000000001 [
1]
1b
b0000 c
b00000000000000000000000000010000 i
b00000000000000000000000000010000 k
#1210000
0]
